Import Excel sheets with R | Dr. Dominic Royé
…
#load packages
library(tidyverse)
library(fs)
library(readxl)

By default, the read_excel() function imports the first sheet. To import a different sheet it is necessary to indicate the number or name with the argument sheet (second argument).

#import first sheet
read_excel("madrid_temp.xlsx")

## # A tibble: 366 x 3
##    date                   ta    yr
##    <dttm>              <dbl> <dbl>
##  1 2000-01-01 00:00:00   5.4  2000
##  2 2000-01-02 00:00:00   5    2000
##  3 2000-01-03 00:00:00   3.5  2000
##  4 2000-01-04 00:00:00   4.3  2000
##  5 2000-01-05 00:00:00   0.6  2000
##  6 2000-01-06 00:00:00   3.8  2000
##  7 2000-01-07 00:00:00   6.2  2000
##  8 2000-01-08 00:00:00   5.4  2000
##  9 2000-01-09 00:00:00   5.5  2000
## 10 2000-01-10 00:00:00   4.8  2000
## # ... with 356 more rows

#import third sheet
read_excel("madrid_temp.xlsx", 3)

## # A tibble: 365 x 3
##    date                   ta    yr
##    <dttm>              <dbl> <dbl>
##  1 2002-01-01 00:00:00   8.7  2002
##  2 2002-01-02 00:00:00   7.4  2002
##  3 2002-01-03 00:00:00   8.5  2002
##  4 2002-01-04 00:00:00   9.2  2002
##  5 2002-01-05 00:00:00   9.3  2002
##  6 2002-01-06 00:00:00   7.3  2002
##  7 2002-01-07 00:00:00   5.4  2002
##  8 2002-01-08 00:00:00   5.6  2002
##  9 2002-01-09 00:00:00   6.8  2002
## 10 2002-01-10 00:00:00   6.1  2002
## # ... with 355 more rows
…
The result is a named list with the name of each sheet that contains the data.frame. Since it is the same table in all sheets, we could use the function bind_rows(), however, there is a variant of map() that directly joins all the tables by row: map_df(). If it were necessary to join by column, map_dfc() could be used.

path <- "madrid_temp.xlsx"

mad <- path %>%
        excel_sheets() %>%
        set_names() %>%
       map_df(read_excel,
           path = path)

mad

## # A tibble: 2,192 x 3
##    date                   ta    yr
##    <dttm>              <dbl> <dbl>
##  1 2000-01-01 00:00:00   5.4  2000
##  2 2000-01-02 00:00:00   5    2000
##  3 2000-01-03 00:00:00   3.5  2000
##  4 2000-01-04 00:00:00   4.3  2000
##  5 2000-01-05 00:00:00   0.6  2000
##  6 2000-01-06 00:00:00   3.8  2000
##  7 2000-01-07 00:00:00   6.2  2000
##  8 2000-01-08 00:00:00   5.4  2000
##  9 2000-01-09 00:00:00   5.5  2000
## 10 2000-01-10 00:00:00   4.8  2000
## # ... with 2,182 more rows
…
#we can filter the files that we want
dir_ls(regexp = "xlsx") 

## berlin_temp.xlsx madrid_temp.xlsx

We import the two Excel files.

#without joining
dir_ls(regexp = "xlsx") %>%
  map(read_excel)

## $berlin_temp.xlsx
## # A tibble: 366 x 3
##    date                   ta    yr
##    <dttm>              <dbl> <dbl>
##  1 2000-01-01 00:00:00   1.2  2000
##  2 2000-01-02 00:00:00   3.6  2000
##  3 2000-01-03 00:00:00   5.7  2000
##  4 2000-01-04 00:00:00   5.1  2000
##  5 2000-01-05 00:00:00   2.2  2000
##  6 2000-01-06 00:00:00   1.8  2000
##  7 2000-01-07 00:00:00   4.2  2000
##  8 2000-01-08 00:00:00   4.2  2000
##  9 2000-01-09 00:00:00   4.2  2000
## 10 2000-01-10 00:00:00   1.7  2000
## # ... with 356 more rows
## 
## $madrid_temp.xlsx
## # A tibble: 366 x 3
##    date                   ta    yr
##    <dttm>              <dbl> <dbl>
##  1 2000-01-01 00:00:00   5.4  2000
##  2 2000-01-02 00:00:00   5    2000
##  3 2000-01-03 00:00:00   3.5  2000
##  4 2000-01-04 00:00:00   4.3  2000
##  5 2000-01-05 00:00:00   0.6  2000
##  6 2000-01-06 00:00:00   3.8  2000
##  7 2000-01-07 00:00:00   6.2  2000
##  8 2000-01-08 00:00:00   5.4  2000
##  9 2000-01-09 00:00:00   5.5  2000
## 10 2000-01-10 00:00:00   4.8  2000
## # ... with 356 more rows

#joining with a new id column
dir_ls(regexp = "xlsx") %>%
  map_df(read_excel, .id = "city")

## # A tibble: 732 x 4
##    city             date                   ta    yr
##    <chr>            <dttm>              <dbl> <dbl>
##  1 berlin_temp.xlsx 2000-01-01 00:00:00   1.2  2000
##  2 berlin_temp.xlsx 2000-01-02 00:00:00   3.6  2000
##  3 berlin_temp.xlsx 2000-01-03 00:00:00   5.7  2000
##  4 berlin_temp.xlsx 2000-01-04 00:00:00   5.1  2000
##  5 berlin_temp.xlsx 2000-01-05 00:00:00   2.2  2000
##  6 berlin_temp.xlsx 2000-01-06 00:00:00   1.8  2000
##  7 berlin_temp.xlsx 2000-01-07 00:00:00   4.2  2000
##  8 berlin_temp.xlsx 2000-01-08 00:00:00   4.2  2000
##  9 berlin_temp.xlsx 2000-01-09 00:00:00   4.2  2000
## 10 berlin_temp.xlsx 2000-01-10 00:00:00   1.7  2000
## # ... with 722 more rows
…
