Resumir tests de correlaciones en R | Dr. Dominic Royé
…
pr

## # A tibble: 133,343 x 5
##    STAID SOUID     DATE    RR  Q_RR
##    <dbl> <dbl>    <dbl> <dbl> <dbl>
##  1  1393 20611 19470301     0     0
##  2  1393 20611 19470302     5     0
##  3  1393 20611 19470303     0     0
##  4  1393 20611 19470304    33     0
##  5  1393 20611 19470305    15     0
##  6  1393 20611 19470306     0     0
##  7  1393 20611 19470307    85     0
##  8  1393 20611 19470308     3     0
##  9  1393 20611 19470309     0     0
## 10  1393 20611 19470310     0     0
## # ... with 133,333 more rows
#creamos los niveles del factor 
id <- unique(pr$STAID)

#las etiquetas correspondientes
lab <- c("Bilbao", "Santiago", "Barcelona", "Madrid", "Valencia")

#primeros cambios
pr <- select(pr, STAID, DATE, RR)%>% 
        mutate(DATE = ymd(DATE), 
               RR = ifelse(RR == -9999, NA, RR/10), 
               STAID = factor(STAID, id, lab), 
               yr = year(DATE)) 
pr

## # A tibble: 133,343 x 4
##    STAID  DATE          RR    yr
##    <fct>  <date>     <dbl> <dbl>
##  1 Bilbao 1947-03-01   0    1947
##  2 Bilbao 1947-03-02   0.5  1947
##  3 Bilbao 1947-03-03   0    1947
##  4 Bilbao 1947-03-04   3.3  1947
##  5 Bilbao 1947-03-05   1.5  1947
##  6 Bilbao 1947-03-06   0    1947
##  7 Bilbao 1947-03-07   8.5  1947
##  8 Bilbao 1947-03-08   0.3  1947
##  9 Bilbao 1947-03-09   0    1947
## 10 Bilbao 1947-03-10   0    1947
## # ... with 133,333 more rows

Lo que todavía nos hace falta es filtrar y calcular la suma anual de precipitación. En principio, no es lo más correcto sumar la precipitación sin tener en cuenta que haya valores ausentes, pero nos sirve igualmente para este ensayo. Después, cambiamos el formato de la tabla con la función spread(), pasando de una tabla larga a una ancha, es decir, queremos obtener una columna por estación meteorológica.

pr_yr <- filter(pr, DATE >= "1950-01-01", DATE < "2018-01-01") %>%
           group_by(STAID, yr) %>%
             summarise(pr = sum(RR, na.rm = TRUE))

## `summarise()` has grouped output by 'STAID'. You can override using the
## `.groups` argument.

pr_yr

## # A tibble: 324 x 3
## # Groups:   STAID [5]
##    STAID     yr    pr
##    <fct>  <dbl> <dbl>
##  1 Bilbao  1950 1342 
##  2 Bilbao  1951 1306.
##  3 Bilbao  1952 1355.
##  4 Bilbao  1953 1372.
##  5 Bilbao  1954 1428.
##  6 Bilbao  1955 1062.
##  7 Bilbao  1956 1254.
##  8 Bilbao  1957  968.
##  9 Bilbao  1958 1272.
## 10 Bilbao  1959 1450.
## # ... with 314 more rows

pr_yr <- spread(pr_yr, STAID, pr)
pr_yr

## # A tibble: 68 x 6
##       yr Bilbao Santiago Barcelona Madrid Valencia
##    <dbl>  <dbl>    <dbl>     <dbl>  <dbl>    <dbl>
##  1  1950  1342     1800.      345     NA        NA
##  2  1951  1306.    2344.     1072.   798.       NA
##  3  1952  1355.    1973.      415.   524.       NA
##  4  1953  1372.     973.      683.   365.       NA
##  5  1954  1428.    1348.      581.   246.       NA
##  6  1955  1062.    1769.      530.   473.       NA
##  7  1956  1254.    1533.      695.   480.       NA
##  8  1957   968.    1599.      635.   424.       NA
##  9  1958  1272.    2658.      479.   482.       NA
## 10  1959  1450.    2847.     1006    665.       NA
## # ... with 58 more rows
…
#teleconexiones
telecon <- read_csv("teleconnections_indices.csv")

## Rows: 68 Columns: 9
## -- Column specification --------------------------------------------------------
## Delimiter: ","
## dbl (9): yr, NAO, WeMO, EA, POL-EUAS, EATL/WRUS, MO, SCAND, AO
## 
## i Use `spec()` to retrieve the full column specification for this data.
## i Specify the column types or set `show_col_types = FALSE` to quiet this message.

telecon

## # A tibble: 68 x 9
##       yr   NAO   WeMO     EA `POL-EUAS` `EATL/WRUS`    MO    SCAND        AO
##    <dbl> <dbl>  <dbl>  <dbl>      <dbl>       <dbl> <dbl>    <dbl>     <dbl>
##  1  1950  0.49  0.555 -0.332     0.0217     -0.0567 0.335  0.301   -0.199   
##  2  1951 -0.07  0.379 -0.372     0.402      -0.419  0.149 -0.00667 -0.365   
##  3  1952 -0.37  0.693 -0.688    -0.0117     -0.711  0.282  0.0642  -0.675   
##  4  1953  0.4  -0.213 -0.727    -0.0567     -0.0508 0.216  0.0233  -0.0164  
##  5  1954  0.51  1.20  -0.912     0.142      -0.318  0.386  0.458   -0.000583
##  6  1955 -0.64  0.138 -0.824    -0.0267      0.154  0.134  0.0392  -0.362   
##  7  1956  0.17  0.617 -1.29     -0.197       0.0617 0.256  0.302   -0.163   
##  8  1957 -0.02  0.321 -0.952    -0.638      -0.167  0.322 -0.134   -0.342   
##  9  1958  0.12  0.941 -0.243     0.138       0.661  0.296  0.279   -0.868   
## 10  1959  0.49 -0.055 -0.23     -0.0142      0.631  0.316  0.725   -0.0762  
## # ... with 58 more rows

Por último nos falta unir ambas tablas por año.

data_all <- left_join(pr_yr, telecon, by = "yr")
data_all

## # A tibble: 68 x 14
##       yr Bilbao Santiago Barcelona Madrid Valencia   NAO   WeMO     EA
##    <dbl>  <dbl>    <dbl>     <dbl>  <dbl>    <dbl> <dbl>  <dbl>  <dbl>
##  1  1950  1342     1800.      345     NA        NA  0.49  0.555 -0.332
##  2  1951  1306.    2344.     1072.   798.       NA -0.07  0.379 -0.372
##  3  1952  1355.    1973.      415.   524.       NA -0.37  0.693 -0.688
##  4  1953  1372.     973.      683.   365.       NA  0.4  -0.213 -0.727
##  5  1954  1428.    1348.      581.   246.       NA  0.51  1.20  -0.912
##  6  1955  1062.    1769.      530.   473.       NA -0.64  0.138 -0.824
##  7  1956  1254.    1533.      695.   480.       NA  0.17  0.617 -1.29 
##  8  1957   968.    1599.      635.   424.       NA -0.02  0.321 -0.952
##  9  1958  1272.    2658.      479.   482.       NA  0.12  0.941 -0.243
## 10  1959  1450.    2847.     1006    665.       NA  0.49 -0.055 -0.23 
## # ... with 58 more rows, and 5 more variables: `POL-EUAS` <dbl>,
## #   `EATL/WRUS` <dbl>, MO <dbl>, SCAND <dbl>, AO <dbl>
…
Aplicar el test de correlación a múltiples variables

El objetivo es aplicar el test de correlación a todas las estaciones meteorológicas e índices de teleconexión.

Primero, debemos pasar la tabla al formato largo, o sea, crear una columna de la ciudad y el valor de la precipitación correspondiente. Después lo repetimos para las teleconexiones.

data <- gather(data_all, city, pr, Bilbao:Valencia) %>%
                     gather(telecon, index, NAO:AO)
data

## # A tibble: 2,720 x 5
##       yr city      pr telecon index
##    <dbl> <chr>  <dbl> <chr>   <dbl>
##  1  1950 Bilbao 1342  NAO      0.49
##  2  1951 Bilbao 1306. NAO     -0.07
##  3  1952 Bilbao 1355. NAO     -0.37
##  4  1953 Bilbao 1372. NAO      0.4 
##  5  1954 Bilbao 1428. NAO      0.51
##  6  1955 Bilbao 1062. NAO     -0.64
##  7  1956 Bilbao 1254. NAO      0.17
##  8  1957 Bilbao  968. NAO     -0.02
##  9  1958 Bilbao 1272. NAO      0.12
## 10  1959 Bilbao 1450. NAO      0.49
## # ... with 2,710 more rows
…
¿Cómo podemos deshacer la lista de tablas en cada fila de nuestra tabla?

Pues bien, primero eliminamos la columna con los datos y después aplicamos simplemente la función unnest().

corr_pr <- select(data_nest, -data) %>% unnest()

## Warning: `cols` is now required when using unnest().
## Please use `cols = c(model)`

corr_pr

## # A tibble: 40 x 7
## # Groups:   city, telecon [40]
##    city      telecon estimate statistic  p.value method              alternative
##    <chr>     <chr>      <dbl>     <dbl>    <dbl> <chr>               <chr>      
##  1 Bilbao    NAO       0.153     44372. 0.213    Spearman's rank co~ two.sided  
##  2 Santiago  NAO      -0.181     61902. 0.139    Spearman's rank co~ two.sided  
##  3 Barcelona NAO      -0.0203    53460. 0.869    Spearman's rank co~ two.sided  
##  4 Madrid    NAO      -0.291     64692. 0.0169   Spearman's rank co~ two.sided  
##  5 Valencia  NAO      -0.113     27600. 0.422    Spearman's rank co~ two.sided  
##  6 Bilbao    WeMO      0.404     31242  0.000706 Spearman's rank co~ two.sided  
##  7 Santiago  WeMO      0.332     35014  0.00594  Spearman's rank co~ two.sided  
##  8 Barcelona WeMO      0.0292    50862  0.813    Spearman's rank co~ two.sided  
##  9 Madrid    WeMO      0.109     44660  0.380    Spearman's rank co~ two.sided  
## 10 Valencia  WeMO     -0.252     31056  0.0688   Spearman's rank co~ two.sided  
## # ... with 30 more rows
…
