Climate circles | Dr. Dominic Royé
…
We download the temperature data for a selection of US cities here. You can access other cities of the entire world through the WMO or GHCN datasets at NCDC/NOAA.

Import

To import the temperature time series of each city, which we find in several files, we apply the read_csv() function using map_df(). The dir_ls() function of the fs package returns the list of files with csv extension. The suffix df of map() indicates that we want to join all imported tables into a single one. For those with less experience with tidyverse, I recommend a short introduction on this blog post.

Then we obtain the names of the weather stations and define a new vector with the new city names.

# import data
meteo <- dir_ls(regexp = ".csv$") %>% 
          map_df(read_csv)
meteo

## # A tibble: 211,825 x 12
##    STATION     NAME    LATITUDE LONGITUDE ELEVATION DATE        TAVG  TMAX  TMIN
##    <chr>       <chr>      <dbl>     <dbl>     <dbl> <date>     <dbl> <dbl> <dbl>
##  1 USW00094846 CHICAG~     42.0     -87.9      202. 1950-01-01   6.8    NA    NA
##  2 USW00094846 CHICAG~     42.0     -87.9      202. 1950-01-02   8.4    NA    NA
##  3 USW00094846 CHICAG~     42.0     -87.9      202. 1950-01-03  11      NA    NA
##  4 USW00094846 CHICAG~     42.0     -87.9      202. 1950-01-04  -7.2    NA    NA
##  5 USW00094846 CHICAG~     42.0     -87.9      202. 1950-01-05 -10.2    NA    NA
##  6 USW00094846 CHICAG~     42.0     -87.9      202. 1950-01-06  -4.6    NA    NA
##  7 USW00094846 CHICAG~     42.0     -87.9      202. 1950-01-07  -7.1    NA    NA
##  8 USW00094846 CHICAG~     42.0     -87.9      202. 1950-01-08  -5.8    NA    NA
##  9 USW00094846 CHICAG~     42.0     -87.9      202. 1950-01-09   2.9    NA    NA
## 10 USW00094846 CHICAG~     42.0     -87.9      202. 1950-01-10   3.9    NA    NA
## # ... with 211,815 more rows, and 3 more variables: TAVG_ATTRIBUTES <chr>,
## #   TMAX_ATTRIBUTES <chr>, TMIN_ATTRIBUTES <chr>
…
In the next step, we calculate the daily maximum, minimum and mean temperature for each day of the year. It now only remains to convert the days of the year into a dummy date. Here we use the year 2000 since it is a leap year, and we have a total of 366 days.

# estimate the daily averages
meteo_yday <- group_by(meteo, name, yd) %>% 
                  summarise(ta = mean(tavg, na.rm = TRUE),
                            tmx = mean(tmax, na.rm = TRUE),
                            tmin = mean(tmin, na.rm = TRUE))

## `summarise()` has grouped output by 'name'. You can override using the
## `.groups` argument.

meteo_yday

## # A tibble: 3,294 x 5
## # Groups:   name [9]
##    name       yd    ta    tmx  tmin
##    <fct>   <dbl> <dbl>  <dbl> <dbl>
##  1 CHICAGO     1 -3.77  0.537 -7.86
##  2 CHICAGO     2 -2.64  1.03  -6.68
##  3 CHICAGO     3 -2.88  0.78  -6.93
##  4 CHICAGO     4 -2.86  0.753 -7.10
##  5 CHICAGO     5 -4.13 -0.137 -8.33
##  6 CHICAGO     6 -4.50 -1.15  -8.05
##  7 CHICAGO     7 -4.70 -0.493 -8.57
##  8 CHICAGO     8 -3.97  0.147 -8.02
##  9 CHICAGO     9 -3.47  0.547 -7.49
## 10 CHICAGO    10 -3.41  1.09  -7.64
## # ... with 3,284 more rows
…
