River flow directions – Dr Dominic Royé
…
>>> Run `qgis_enable_plugins()` to enable 1 disabled plugin and access
    its algorithms: otbprovider

Saving configuration to 'C:\Users\xeo19\AppData\Local\R-qgisprocess\R-qgisprocess\Cache/cache-0.4.1.rds'

Use qgis_algorithms(), qgis_providers(), qgis_plugins(), qgis_path() and
qgis_version() to inspect the cache environment.

The qgis_algorithms() function helps us to search for different QGIS tools. In addition the qgis_show_help() function specifies the way of usage with all the required parameters.

# search tools
qgis_algorithms()

# A tibble: 376 × 24
   provider provider_title algorithm                algorithm_id algorithm_title
   <chr>    <chr>          <chr>                    <chr>        <chr>          
 1 3d       QGIS (3D)      3d:tessellate            tessellate   Tessellate     
 2 gdal     GDAL           gdal:aspect              aspect       Aspect         
 3 gdal     GDAL           gdal:assignprojection    assignproje… Assign project…
 4 gdal     GDAL           gdal:buffervectors       buffervecto… Buffer vectors 
 5 gdal     GDAL           gdal:buildvirtualraster  buildvirtua… Build virtual …
 6 gdal     GDAL           gdal:buildvirtualvector  buildvirtua… Build virtual …
 7 gdal     GDAL           gdal:cliprasterbyextent  cliprasterb… Clip raster by…
 8 gdal     GDAL           gdal:cliprasterbymaskla… cliprasterb… Clip raster by…
 9 gdal     GDAL           gdal:clipvectorbyextent  clipvectorb… Clip vector by…
10 gdal     GDAL           gdal:clipvectorbypolygon clipvectorb… Clip vector by…
# ℹ 366 more rows
# ℹ 19 more variables: provider_can_be_activated <lgl>,
#   provider_is_active <lgl>, provider_long_name <chr>, provider_version <chr>,
#   provider_warning <chr>, can_cancel <lgl>, deprecated <lgl>, group <chr>,
#   has_known_issues <lgl>, help_url <chr>, requires_matching_crs <lgl>,
#   short_description <chr>, tags <list>, default_raster_file_extension <chr>,
#   default_vector_file_extension <chr>, …
…
