Import Excel sheets with R – Dr Dominic Royé
…
# load packages
library(tidyverse)
library(fs)
library(readxl)

Import excel files

By default, the read_excel() function imports the first sheet. To import a different sheet it is necessary to indicate the number or name with the argument sheet (second argument).

# import first sheet
read_excel("madrid_temp.xlsx")

# A tibble: 366 × 3
      ta    dy    mo
   <dbl> <dbl> <dbl>
 1   5.4     1     1
 2   5       2     1
 3   3.5     3     1
 4   4.3     4     1
 5   0.6     5     1
 6   3.8     6     1
 7   6.2     7     1
 8   5.4     8     1
 9   5.5     9     1
10   4.8    10     1
# ℹ 356 more rows

# import third sheet
read_excel("madrid_temp.xlsx", 3)

# A tibble: 365 × 3
      ta    dy    mo
   <dbl> <dbl> <dbl>
 1   8.7     1     1
 2   7.4     2     1
 3   8.5     3     1
 4   9.2     4     1
 5   9.3     5     1
 6   7.3     6     1
 7   5.4     7     1
 8   5.6     8     1
 9   6.8     9     1
10   6.1    10     1
# ℹ 355 more rows
…
The result is a named list with the name of each sheet that contains the data.frame. To bind all rows from the list we can use the list_rbind() function, but we will lose the sheet names.

path <- "madrid_temp.xlsx"

mad <- path |>
  excel_sheets() |>
  set_names() |>
  map(read_excel,
    path = path
  ) |>
  list_rbind()

mad

# A tibble: 2,192 × 3
      ta    dy    mo
   <dbl> <dbl> <dbl>
 1   5.4     1     1
 2   5       2     1
 3   3.5     3     1
 4   4.3     4     1
 5   0.6     5     1
 6   3.8     6     1
 7   6.2     7     1
 8   5.4     8     1
 9   5.5     9     1
10   4.8    10     1
# ℹ 2,182 more rows
…
dir_ls()

# we can filter the files that we want
dir_ls(regexp = "xlsx")

berlin_temp.xlsx madrid_temp.xlsx 

We import the two Excel files.

# without joining
dir_ls(regexp = "xlsx") |>
  map(read_excel)

$berlin_temp.xlsx
# A tibble: 366 × 3
      ta    dy    mo
   <dbl> <dbl> <dbl>
 1   1.2     1     1
 2   3.6     2     1
 3   5.7     3     1
 4   5.1     4     1
 5   2.2     5     1
 6   1.8     6     1
 7   4.2     7     1
 8   4.2     8     1
 9   4.2     9     1
10   1.7    10     1
# ℹ 356 more rows

$madrid_temp.xlsx
# A tibble: 366 × 3
      ta    dy    mo
   <dbl> <dbl> <dbl>
 1   5.4     1     1
 2   5       2     1
 3   3.5     3     1
 4   4.3     4     1
 5   0.6     5     1
 6   3.8     6     1
 7   6.2     7     1
 8   5.4     8     1
 9   5.5     9     1
10   4.8    10     1
# ℹ 356 more rows

# joining with a new id column
dir_ls(regexp = "xlsx") |>
  map(read_excel) |>
  list_rbind(names_to = "city")

# A tibble: 732 × 4
   city                ta    dy    mo
   <chr>            <dbl> <dbl> <dbl>
 1 berlin_temp.xlsx   1.2     1     1
 2 berlin_temp.xlsx   3.6     2     1
 3 berlin_temp.xlsx   5.7     3     1
 4 berlin_temp.xlsx   5.1     4     1
 5 berlin_temp.xlsx   2.2     5     1
 6 berlin_temp.xlsx   1.8     6     1
 7 berlin_temp.xlsx   4.2     7     1
 8 berlin_temp.xlsx   4.2     8     1
 9 berlin_temp.xlsx   4.2     9     1
10 berlin_temp.xlsx   1.7    10     1
# ℹ 722 more rows
…
