River flow directions | Dr. Dominic Royé
…
## Trying command 'C:/Program Files/QGIS 3.18/bin/qgis_process-qgis.bat'

## Success!

## QGIS version: 3.18.1-Zürich

## Metadata of 986 algorithms queried and stored in cache.
## Run `qgis_algorithms()` to see them.

The qgis_algorithms() function helps us to search for different QGIS tools. In addition the qgis_show_help() function specifies the way of usage with all the required parameters.

# search tools
qgis_algorithms()

## # A tibble: 986 x 5
##    provider provider_title algorithm                algorithm_id algorithm_title
##    <chr>    <chr>          <chr>                    <chr>        <chr>          
##  1 3d       QGIS (3D)      3d:tessellate            tessellate   Tessellate     
##  2 gdal     GDAL           gdal:aspect              aspect       Aspect         
##  3 gdal     GDAL           gdal:assignprojection    assignproje~ Assign project~
##  4 gdal     GDAL           gdal:buffervectors       buffervecto~ Buffer vectors 
##  5 gdal     GDAL           gdal:buildvirtualraster  buildvirtua~ Build virtual ~
##  6 gdal     GDAL           gdal:buildvirtualvector  buildvirtua~ Build virtual ~
##  7 gdal     GDAL           gdal:cliprasterbyextent  cliprasterb~ Clip raster by~
##  8 gdal     GDAL           gdal:cliprasterbymaskla~ cliprasterb~ Clip raster by~
##  9 gdal     GDAL           gdal:clipvectorbyextent  clipvectorb~ Clip vector by~
## 10 gdal     GDAL           gdal:clipvectorbypolygon clipvectorb~ Clip vector by~
## # ... with 976 more rows
…
