Círculos climáticos | Dr. Dominic Royé
…
En el siguiente paso calculamos el promedio de las máximas, mínimas y media diarias para cada día del año. Después únicamente falta por convertir los días del año en una fecha dummy. Aquí usamos el año 2000 dado que es bisiesto y tenemos en total 366 días.

# estimamos los promedios diarios
meteo_yday <- group_by(meteo, name, yd) %>% 
                  summarise(ta = mean(tavg, na.rm = TRUE),
                            tmx = mean(tmax, na.rm = TRUE),
                            tmin = mean(tmin, na.rm = TRUE))

## `summarise()` has grouped output by 'name'. You can override using the
## `.groups` argument.

meteo_yday

## # A tibble: 3,294 x 5
## # Groups:   name [9]
##    name       yd    ta    tmx  tmin
##    <fct>   <dbl> <dbl>  <dbl> <dbl>
##  1 CHICAGO     1 -3.77  0.537 -7.86
##  2 CHICAGO     2 -2.64  1.03  -6.68
##  3 CHICAGO     3 -2.88  0.78  -6.93
##  4 CHICAGO     4 -2.86  0.753 -7.10
##  5 CHICAGO     5 -4.13 -0.137 -8.33
##  6 CHICAGO     6 -4.50 -1.15  -8.05
##  7 CHICAGO     7 -4.70 -0.493 -8.57
##  8 CHICAGO     8 -3.97  0.147 -8.02
##  9 CHICAGO     9 -3.47  0.547 -7.49
## 10 CHICAGO    10 -3.41  1.09  -7.64
## # ... with 3,284 more rows
…
