Visualizar anomalías de precipitación mensual | Dr. Dominic Royé
…
## Rows: 27606 Columns: 5

## -- Column specification --------------------------------------------------------
## Delimiter: ","
## dbl (5): STAID, SOUID, DATE, RR, Q_RR

## 
## i Use `spec()` to retrieve the full column specification for this data.
## i Specify the column types or set `show_col_types = FALSE` to quiet this message.

data

## # A tibble: 27,606 x 2
##    date          pr
##    <date>     <dbl>
##  1 1943-11-01   0.6
##  2 1943-11-02   0  
##  3 1943-11-03   0  
##  4 1943-11-04   0  
##  5 1943-11-05   0  
##  6 1943-11-06   0  
##  7 1943-11-07   0  
##  8 1943-11-08   0  
##  9 1943-11-09   0  
## 10 1943-11-10   0  
## # ... with 27,596 more rows

Paso 2: crear valores menusales

En el segundo paso calculamos las cantidades mensuales de precipitación. Para ello, a) limitamos el período a los años posteriores a 1950, b) añadimos como variable el mes con etiqueta y el año.

data <- mutate(data, mo = month(date, label = TRUE), yr = year(date)) %>%
            filter(date >= "1950-01-01") %>%
                group_by(yr, mo) %>% 
                   summarise(prs = sum(pr, na.rm = TRUE))

## `summarise()` has grouped output by 'yr'. You can override using the `.groups` argument.

data

## # A tibble: 833 x 3
## # Groups:   yr [70]
##       yr mo      prs
##    <dbl> <ord> <dbl>
##  1  1950 ene    55.6
##  2  1950 feb   349. 
##  3  1950 mar    85.8
##  4  1950 abr    33.4
##  5  1950 may   272. 
##  6  1950 jun   111. 
##  7  1950 jul    35.4
##  8  1950 ago    76.4
##  9  1950 sep    85  
## 10  1950 oct    53  
## # ... with 823 more rows
…
