Un heatmap como calendario | Dr. Dominic Royé
…
Para aquellos con menos experiencia con tidyverse, recomiendo una breve introducción en este blog post.

Datos

En este ejemplo usaremos la precipitación diaria de Santiago de Compostela de este año 2020 (hasta el 20 de diciembre) descarga.

# importamos los datos
dat_pr <- read_csv("precipitation_santiago.csv")
dat_pr

## # A tibble: 355 x 2
##    date          pr
##    <date>     <dbl>
##  1 2020-01-01   0  
##  2 2020-01-02   0  
##  3 2020-01-03   5.4
##  4 2020-01-04   0  
##  5 2020-01-05   0  
##  6 2020-01-06   0  
##  7 2020-01-07   0  
##  8 2020-01-08   1  
##  9 2020-01-09   3.8
## 10 2020-01-10   0  
## # ... with 345 more rows
…
dat_pr <- mutate(dat_pr, 
                 weekday = factor(weekday, 
                                  levels(weekday),
                                  str_sub(levels(weekday), 1, 2)),
                 week = case_when(month == "diciembre" & week == 1 ~ 53,
                                  month == "enero" & week %in% 52:53 ~ 0,
                                  TRUE ~ week),
                 pcat = cut(pr, c(-1, 0, .5, 1:5, 7, 9, 15, 20, 25, 30, 300)),
                 text_col = ifelse(pcat %in% c("(15,20]", "(20,25]", "(25,30]", "(30,300]"), 
                                   "white", "black")) 
      
dat_pr  

## # A tibble: 366 x 8
##    date          pr weekday month  week   day pcat    text_col
##    <date>     <dbl> <ord>   <ord> <dbl> <int> <fct>   <chr>   
##  1 2020-01-01   0   mi      enero     1     1 (-1,0]  black   
##  2 2020-01-02   0   ju      enero     1     2 (-1,0]  black   
##  3 2020-01-03   5.4 vi      enero     1     3 (5,7]   black   
##  4 2020-01-04   0   sá      enero     1     4 (-1,0]  black   
##  5 2020-01-05   0   do      enero     1     5 (-1,0]  black   
##  6 2020-01-06   0   lu      enero     2     6 (-1,0]  black   
##  7 2020-01-07   0   ma      enero     2     7 (-1,0]  black   
##  8 2020-01-08   1   mi      enero     2     8 (0.5,1] black   
##  9 2020-01-09   3.8 ju      enero     2     9 (3,4]   black   
## 10 2020-01-10   0   vi      enero     2    10 (-1,0]  black   
## # ... with 356 more rows
…
