Visualizar anomalías climáticas | Dr. Dominic Royé
…
data <- read_csv("meteo_tenerife.csv") 

## Rows: 14303 Columns: 3
## -- Column specification --------------------------------------------------------
## Delimiter: ","
## dbl  (2): pr, ta
## date (1): date
## 
## i Use `spec()` to retrieve the full column specification for this data.
## i Specify the column types or set `show_col_types = FALSE` to quiet this message.

data

## # A tibble: 14,303 x 3
##    date          pr    ta
##    <date>     <dbl> <dbl>
##  1 1981-01-02   0    17.6
##  2 1981-01-03   0    16.8
##  3 1981-01-04   0    17.4
##  4 1981-01-05   0    17.6
##  5 1981-01-06   0    17  
##  6 1981-01-07   0    17.6
##  7 1981-01-08   0    18.6
##  8 1981-01-09   0    19.8
##  9 1981-01-10   0    21.5
## 10 1981-01-11   3.8  17.6
## # ... with 14,293 more rows
…
Usaremos las funciones de la colección de paquetes tidyverse (https://www.tidyverse.org/). La función mutate() ayuda a añadir nuevas columnas o a cambiar otras existentes. Para definir las estaciones del año, empleamos la función case_when() del paquete dplyr lo que tiene muchas ventajas en comparación con una cadena de ifelse(). En la función case_when() usamos fórmulas en dos tiempos, por un lado la condición y por otro la acción cuando se cumpla esa condición. En R una fórmula de dos tiempos o dos lados se consistuye con el operador ~. El operador binario %in% nos permite filtrar varios valores en un conjunto.

data <- mutate(data, 
               winter_yr = meteo_yr(date, 12),
               month = month(date), 
               season = case_when(month %in% c(12,1:2) ~ "Winter",
                                  month %in% 3:5 ~ "Spring",
                                  month %in% 6:8 ~ "Summer",
                                  month %in% 9:11 ~ "Autum"))

data

## # A tibble: 14,303 x 6
##    date          pr    ta winter_yr month season
##    <date>     <dbl> <dbl>     <dbl> <dbl> <chr> 
##  1 1981-01-02   0    17.6      1981     1 Winter
##  2 1981-01-03   0    16.8      1981     1 Winter
##  3 1981-01-04   0    17.4      1981     1 Winter
##  4 1981-01-05   0    17.6      1981     1 Winter
##  5 1981-01-06   0    17        1981     1 Winter
##  6 1981-01-07   0    17.6      1981     1 Winter
##  7 1981-01-08   0    18.6      1981     1 Winter
##  8 1981-01-09   0    19.8      1981     1 Winter
##  9 1981-01-10   0    21.5      1981     1 Winter
## 10 1981-01-11   3.8  17.6      1981     1 Winter
## # ... with 14,293 more rows
…
