Visualizar el crecimiento urbano | Dr. Dominic Royé
…
# extraemos la tabla con los enlaces
prov_enlaces_tab <- as_tibble(prov_enlaces$items) %>% 
                       mutate(title = repair_encoding(title))

## Warning: `html_encoding_repair()` was deprecated in rvest 1.0.0.
## Instead, re-load using the `encoding` argument of `read_html()`
## This warning is displayed once every 8 hours.
## Call `lifecycle::last_lifecycle_warnings()` to see where this warning was generated.

## Best guess: UTF-8 (100% confident)

prov_enlaces_tab

## # A tibble: 52 x 5
##    title                             date                link  description hash 
##    <chr>                             <dttm>              <chr> <chr>       <chr>
##  1 "Territorial office 02 Albacete"  2022-03-14 00:00:00 http~ "\n\n\t\t ~ d21e~
##  2 "Territorial office 03 Alicante"  2022-03-14 00:00:00 http~ "\n\n\t\t ~ bdba~
##  3 "Territorial office 04 Almería"   2022-03-14 00:00:00 http~ "\n\n\t\t ~ 03bc~
##  4 "Territorial office 05 Avila"     2022-03-14 00:00:00 http~ "\n\n\t\t ~ 8a15~
##  5 "Territorial office 06 Badajoz"   2022-03-14 00:00:00 http~ "\n\n\t\t ~ 7d3f~
##  6 "Territorial office 07 Baleares " 2022-03-14 00:00:00 http~ "\n\n\t\t ~ 9c08~
##  7 "Territorial office 08 Barcelona" 2022-03-14 00:00:00 http~ "\n\n\t\t ~ ff72~
##  8 "Territorial office 09 Burgos "   2022-03-14 00:00:00 http~ "\n\n\t\t ~ b431~
##  9 "Territorial office 10 Cáceres "  2022-03-14 00:00:00 http~ "\n\n\t\t ~ f79c~
## 10 "Territorial office 11 Cádiz "    2022-03-14 00:00:00 http~ "\n\n\t\t ~ d702~
## # ... with 42 more rows
…
