Always normalize you data – Dr Dominic Royé
…
Data

In this post we will use a dataset of libraries from Spain for 2022 (download)1 which I obtained from the Ministry of Culture. In this step we also import the population data from the INE and municipality boundaries from the mapSpain package.

# import library data
bib <- read_excel("datos.xlsx") |>
  clean_names() |>
  filter(pais == "España")
bib

# A tibble: 7,482 × 26
   niden       nombre nombre_ca pais  codigo_ca ca    codigo_provincia provincia
   <chr>       <chr>  <lgl>     <chr> <chr>     <chr> <chr>            <chr>    
 1 397-4003003 Bibli… NA        Espa… 01        Anda… 04               Almería  
 2 397-4003001 Bibli… NA        Espa… 01        Anda… 04               Almería  
 3 397-4003002 Bibli… NA        Espa… 01        Anda… 04               Almería  
 4 580-4004001 Bibli… NA        Espa… 01        Anda… 04               Almería  
 5 589-4005001 Bibli… NA        Espa… 01        Anda… 04               Almería  
 6 398-4006001 Bibli… NA        Espa… 01        Anda… 04               Almería  
 7 590-4007001 Bibli… NA        Espa… 01        Anda… 04               Almería  
 8 8468-10180  Bibli… NA        Espa… 01        Anda… 04               Almería  
 9 399-4011001 Bibli… NA        Espa… 01        Anda… 04               Almería  
10 412-7108    Bibli… NA        Espa… 01        Anda… 04               Almería  
# ℹ 7,472 more rows
# ℹ 18 more variables: codigo_municipio <chr>, municipio <chr>,
#   entidad_menor <chr>, direccion <chr>, distrito_postal <chr>,
#   tipologia <chr>, telefono <chr>, correo_electronico <chr>,
#   pagina_web <chr>, tipo_biblioteca <chr>, ano_fundacion <dbl>,
#   telefono2 <chr>, longitud <chr>, latitud <chr>, correo_prestamo <chr>,
#   acceso_catalogo <chr>, titularidad <chr>, gestion <chr>
…
# population data
pob <- read_csv2("33570.csv") |> janitor::clean_names()
pob

# A tibble: 10,739,520 × 5
   sexo  municipios     edad_grupos_quinquenales periodo               total
   <chr> <chr>          <chr>                    <chr>                 <dbl>
 1 Total Total Nacional Todas las edades         1 de enero de 2022 47475420
 2 Total Total Nacional Todas las edades         1 de enero de 2021 47385107
 3 Total Total Nacional Todas las edades         1 de enero de 2020 47450795
 4 Total Total Nacional Todas las edades         1 de enero de 2019 47026208
 5 Total Total Nacional Todas las edades         1 de enero de 2018 46722980
 6 Total Total Nacional Todas las edades         1 de enero de 2017 46572132
 7 Total Total Nacional Todas las edades         1 de enero de 2016 46557008
 8 Total Total Nacional Todas las edades         1 de enero de 2015 46624382
 9 Total Total Nacional Todas las edades         1 de enero de 2014 46771341
10 Total Total Nacional Todas las edades         1 de enero de 2013 47129783
# ℹ 10,739,510 more rows
…
