Importar varias hojas Excel en R | Dr. Dominic Royé
…
#paquetes
library(tidyverse)
library(fs)
library(readxl)

Por defecto, la función read_excel() importa la primera hoja. Para importar una hoja diferente es necesario indicarlo con el argumento sheet o bien el número o el nombre (segundo argumento).

#importar primera hoja
read_excel("madrid_temp.xlsx")

## # A tibble: 366 x 3
##    date                   ta    yr
##    <dttm>              <dbl> <dbl>
##  1 2000-01-01 00:00:00   5.4  2000
##  2 2000-01-02 00:00:00   5    2000
##  3 2000-01-03 00:00:00   3.5  2000
##  4 2000-01-04 00:00:00   4.3  2000
##  5 2000-01-05 00:00:00   0.6  2000
##  6 2000-01-06 00:00:00   3.8  2000
##  7 2000-01-07 00:00:00   6.2  2000
##  8 2000-01-08 00:00:00   5.4  2000
##  9 2000-01-09 00:00:00   5.5  2000
## 10 2000-01-10 00:00:00   4.8  2000
## # ... with 356 more rows

#importar hoja 3
read_excel("madrid_temp.xlsx", 3)

## # A tibble: 365 x 3
##    date                   ta    yr
##    <dttm>              <dbl> <dbl>
##  1 2002-01-01 00:00:00   8.7  2002
##  2 2002-01-02 00:00:00   7.4  2002
##  3 2002-01-03 00:00:00   8.5  2002
##  4 2002-01-04 00:00:00   9.2  2002
##  5 2002-01-05 00:00:00   9.3  2002
##  6 2002-01-06 00:00:00   7.3  2002
##  7 2002-01-07 00:00:00   5.4  2002
##  8 2002-01-08 00:00:00   5.6  2002
##  9 2002-01-09 00:00:00   6.8  2002
## 10 2002-01-10 00:00:00   6.1  2002
## # ... with 355 more rows
…
El resultado es una lista nombrada con el nombre de cada hoja que contiene el data.frame. Dado que se trata de la misma tabla en todas las hojas, podríamos usar la función bind_rows(), no obstante, existe una variante de map()que directamente nos une todas las tablas por fila: map_df(). Si fuese necesario unir por columna se debería usar map_dfc().

path <- "madrid_temp.xlsx"

mad <- path %>%
        excel_sheets() %>%
        set_names() %>%
       map_df(read_excel,
           path = path)

mad

## # A tibble: 2,192 x 3
##    date                   ta    yr
##    <dttm>              <dbl> <dbl>
##  1 2000-01-01 00:00:00   5.4  2000
##  2 2000-01-02 00:00:00   5    2000
##  3 2000-01-03 00:00:00   3.5  2000
##  4 2000-01-04 00:00:00   4.3  2000
##  5 2000-01-05 00:00:00   0.6  2000
##  6 2000-01-06 00:00:00   3.8  2000
##  7 2000-01-07 00:00:00   6.2  2000
##  8 2000-01-08 00:00:00   5.4  2000
##  9 2000-01-09 00:00:00   5.5  2000
## 10 2000-01-10 00:00:00   4.8  2000
## # ... with 2,182 more rows
…
#podemos filtrar los archivos que queremos
dir_ls(regexp = "xlsx") 

## berlin_temp.xlsx madrid_temp.xlsx

Importamos los dos archivos de Excel que tenemos.

#sin unir
dir_ls(regexp = "xlsx")%>%
  map(read_excel)

## $berlin_temp.xlsx
## # A tibble: 366 x 3
##    date                   ta    yr
##    <dttm>              <dbl> <dbl>
##  1 2000-01-01 00:00:00   1.2  2000
##  2 2000-01-02 00:00:00   3.6  2000
##  3 2000-01-03 00:00:00   5.7  2000
##  4 2000-01-04 00:00:00   5.1  2000
##  5 2000-01-05 00:00:00   2.2  2000
##  6 2000-01-06 00:00:00   1.8  2000
##  7 2000-01-07 00:00:00   4.2  2000
##  8 2000-01-08 00:00:00   4.2  2000
##  9 2000-01-09 00:00:00   4.2  2000
## 10 2000-01-10 00:00:00   1.7  2000
## # ... with 356 more rows
## 
## $madrid_temp.xlsx
## # A tibble: 366 x 3
##    date                   ta    yr
##    <dttm>              <dbl> <dbl>
##  1 2000-01-01 00:00:00   5.4  2000
##  2 2000-01-02 00:00:00   5    2000
##  3 2000-01-03 00:00:00   3.5  2000
##  4 2000-01-04 00:00:00   4.3  2000
##  5 2000-01-05 00:00:00   0.6  2000
##  6 2000-01-06 00:00:00   3.8  2000
##  7 2000-01-07 00:00:00   6.2  2000
##  8 2000-01-08 00:00:00   5.4  2000
##  9 2000-01-09 00:00:00   5.5  2000
## 10 2000-01-10 00:00:00   4.8  2000
## # ... with 356 more rows

#uniendo con una nueva columna
dir_ls(regexp = "xlsx")%>%
  map_df(read_excel, .id = "city")

## # A tibble: 732 x 4
##    city             date                   ta    yr
##    <chr>            <dttm>              <dbl> <dbl>
##  1 berlin_temp.xlsx 2000-01-01 00:00:00   1.2  2000
##  2 berlin_temp.xlsx 2000-01-02 00:00:00   3.6  2000
##  3 berlin_temp.xlsx 2000-01-03 00:00:00   5.7  2000
##  4 berlin_temp.xlsx 2000-01-04 00:00:00   5.1  2000
##  5 berlin_temp.xlsx 2000-01-05 00:00:00   2.2  2000
##  6 berlin_temp.xlsx 2000-01-06 00:00:00   1.8  2000
##  7 berlin_temp.xlsx 2000-01-07 00:00:00   4.2  2000
##  8 berlin_temp.xlsx 2000-01-08 00:00:00   4.2  2000
##  9 berlin_temp.xlsx 2000-01-09 00:00:00   4.2  2000
## 10 berlin_temp.xlsx 2000-01-10 00:00:00   1.7  2000
## # ... with 722 more rows
…
