Tidy correlation tests in R – Dr Dominic Royé
…
ℹ Use `spec()` to retrieve the full column specification for this data.
ℹ Specify the column types or set `show_col_types = FALSE` to quiet this message.
Rows: 19813 Columns: 5
── Column specification ────────────────────────────────────────────────────────
Delimiter: ","
dbl (5): STAID, SOUID, DATE, RR, Q_RR

ℹ Use `spec()` to retrieve the full column specification for this data.
ℹ Specify the column types or set `show_col_types = FALSE` to quiet this message.

pr

# A tibble: 133,343 × 5
   STAID SOUID     DATE    RR  Q_RR
   <dbl> <dbl>    <dbl> <dbl> <dbl>
 1  1393 20611 19470301     0     0
 2  1393 20611 19470302     5     0
 3  1393 20611 19470303     0     0
 4  1393 20611 19470304    33     0
 5  1393 20611 19470305    15     0
 6  1393 20611 19470306     0     0
 7  1393 20611 19470307    85     0
 8  1393 20611 19470308     3     0
 9  1393 20611 19470309     0     0
10  1393 20611 19470310     0     0
# ℹ 133,333 more rows
…
# the corresponding labels
lab <- c("Bilbao", "Santiago", "Barcelona", "Madrid", "Valencia")

# first changes
pr <- select(pr, STAID, DATE, RR) |>
  mutate(
    DATE = ymd(DATE),
    RR = ifelse(RR == -9999, NA, RR / 10),
    STAID = factor(STAID, id, lab),
    yr = year(DATE)
  )
pr

# A tibble: 133,343 × 4
   STAID  DATE          RR    yr
   <fct>  <date>     <dbl> <dbl>
 1 Bilbao 1947-03-01   0    1947
 2 Bilbao 1947-03-02   0.5  1947
 3 Bilbao 1947-03-03   0    1947
 4 Bilbao 1947-03-04   3.3  1947
 5 Bilbao 1947-03-05   1.5  1947
 6 Bilbao 1947-03-06   0    1947
 7 Bilbao 1947-03-07   8.5  1947
 8 Bilbao 1947-03-08   0.3  1947
 9 Bilbao 1947-03-09   0    1947
10 Bilbao 1947-03-10   0    1947
# ℹ 133,333 more rows

We still need to filter and calculate the annual amount of precipitation. Actually, it is not correct to sum up precipitation without taking into account that there are missing values, but it should be enough for this practice. Then, we change the table format with the spread() function, passing from a long to a wide table, that is, we want to obtain one column per weather station.

pr_yr <- filter(pr, DATE >= "1950-01-01", 
                DATE < "2018-01-01") |>
          group_by(STAID, yr) |>
          summarise(pr = sum(RR, na.rm = TRUE))

`summarise()` has grouped output by 'STAID'. You can override using the
`.groups` argument.

pr_yr

# A tibble: 324 × 3
# Groups:   STAID [5]
   STAID     yr    pr
   <fct>  <dbl> <dbl>
 1 Bilbao  1950 1342 
 2 Bilbao  1951 1306.
 3 Bilbao  1952 1355.
 4 Bilbao  1953 1372.
 5 Bilbao  1954 1428.
 6 Bilbao  1955 1062.
 7 Bilbao  1956 1254.
 8 Bilbao  1957  968.
 9 Bilbao  1958 1272.
10 Bilbao  1959 1450.
# ℹ 314 more rows

pr_yr <- spread(pr_yr, STAID, pr)
pr_yr

# A tibble: 68 × 6
      yr Bilbao Santiago Barcelona Madrid Valencia
   <dbl>  <dbl>    <dbl>     <dbl>  <dbl>    <dbl>
 1  1950  1342     1800.      345     NA        NA
 2  1951  1306.    2344.     1072.   798.       NA
 3  1952  1355.    1973.      415.   524.       NA
 4  1953  1372.     973.      683.   365.       NA
 5  1954  1428.    1348.      581.   246.       NA
 6  1955  1062.    1769.      530.   473.       NA
 7  1956  1254.    1533.      695.   480.       NA
 8  1957   968.    1599.      635.   424.       NA
 9  1958  1272.    2658.      479.   482.       NA
10  1959  1450.    2847.     1006    665.       NA
# ℹ 58 more rows
…
# teleconnections
telecon <- read_csv("teleconnections_indices.csv")

Rows: 68 Columns: 9
── Column specification ────────────────────────────────────────────────────────
Delimiter: ","
dbl (9): yr, NAO, WeMO, EA, POL-EUAS, EATL/WRUS, MO, SCAND, AO

ℹ Use `spec()` to retrieve the full column specification for this data.
ℹ Specify the column types or set `show_col_types = FALSE` to quiet this message.

telecon

# A tibble: 68 × 9
      yr   NAO   WeMO     EA `POL-EUAS` `EATL/WRUS`    MO    SCAND        AO
   <dbl> <dbl>  <dbl>  <dbl>      <dbl>       <dbl> <dbl>    <dbl>     <dbl>
 1  1950  0.49  0.555 -0.332     0.0217     -0.0567 0.335  0.301   -0.199   
 2  1951 -0.07  0.379 -0.372     0.402      -0.419  0.149 -0.00667 -0.365   
 3  1952 -0.37  0.693 -0.688    -0.0117     -0.711  0.282  0.0642  -0.675   
 4  1953  0.4  -0.213 -0.727    -0.0567     -0.0508 0.216  0.0233  -0.0164  
 5  1954  0.51  1.20  -0.912     0.142      -0.318  0.386  0.458   -0.000583
 6  1955 -0.64  0.138 -0.824    -0.0267      0.154  0.134  0.0392  -0.362   
 7  1956  0.17  0.617 -1.29     -0.197       0.0617 0.256  0.302   -0.163   
 8  1957 -0.02  0.321 -0.952    -0.638      -0.167  0.322 -0.134   -0.342   
 9  1958  0.12  0.941 -0.243     0.138       0.661  0.296  0.279   -0.868   
10  1959  0.49 -0.055 -0.23     -0.0142      0.631  0.316  0.725   -0.0762  
# ℹ 58 more rows

Finally we need to join both tables by year.

data_all <- left_join(pr_yr, telecon, by = "yr")
data_all

# A tibble: 68 × 14
      yr Bilbao Santiago Barcelona Madrid Valencia   NAO   WeMO     EA
   <dbl>  <dbl>    <dbl>     <dbl>  <dbl>    <dbl> <dbl>  <dbl>  <dbl>
 1  1950  1342     1800.      345     NA        NA  0.49  0.555 -0.332
 2  1951  1306.    2344.     1072.   798.       NA -0.07  0.379 -0.372
 3  1952  1355.    1973.      415.   524.       NA -0.37  0.693 -0.688
 4  1953  1372.     973.      683.   365.       NA  0.4  -0.213 -0.727
 5  1954  1428.    1348.      581.   246.       NA  0.51  1.20  -0.912
 6  1955  1062.    1769.      530.   473.       NA -0.64  0.138 -0.824
 7  1956  1254.    1533.      695.   480.       NA  0.17  0.617 -1.29 
 8  1957   968.    1599.      635.   424.       NA -0.02  0.321 -0.952
 9  1958  1272.    2658.      479.   482.       NA  0.12  0.941 -0.243
10  1959  1450.    2847.     1006    665.       NA  0.49 -0.055 -0.23 
# ℹ 58 more rows
# ℹ 5 more variables: `POL-EUAS` <dbl>, `EATL/WRUS` <dbl>, MO <dbl>,
#   SCAND <dbl>, AO <dbl>
…
Apply the correlation test to multiple variables

The objective is to apply the correlation test to all weather stations and climate teleconnection indices.

First, we must pass the table to the long format, that is, create a column/variable for the city and for the value of the corresponding precipitation. Then we repeat the same for the teleconnections indices.

data <- pivot_longer(data_all, Bilbao:Valencia, names_to = "city", values_to = "pr") |>
             pivot_longer(NAO:AO, names_to = "telecon", values_to = "index")
data

# A tibble: 2,720 × 5
      yr city        pr telecon     index
   <dbl> <chr>    <dbl> <chr>       <dbl>
 1  1950 Bilbao   1342  NAO        0.49  
 2  1950 Bilbao   1342  WeMO       0.555 
 3  1950 Bilbao   1342  EA        -0.332 
 4  1950 Bilbao   1342  POL-EUAS   0.0217
 5  1950 Bilbao   1342  EATL/WRUS -0.0567
 6  1950 Bilbao   1342  MO         0.335 
 7  1950 Bilbao   1342  SCAND      0.301 
 8  1950 Bilbao   1342  AO        -0.199 
 9  1950 Santiago 1800. NAO        0.49  
10  1950 Santiago 1800. WeMO       0.555 
# ℹ 2,710 more rows
…
How can we undo the list of tables in each row of our table?

First we eliminate the column with the data and then simply we can apply the unnest() function.

corr_pr <- select(data_nest, -data) |> unnest()

Warning: `cols` is now required when using `unnest()`.
ℹ Please use `cols = c(model)`.

corr_pr

# A tibble: 40 × 7
# Groups:   city, telecon [40]
   city     telecon   estimate statistic  p.value method             alternative
   <chr>    <chr>        <dbl>     <dbl>    <dbl> <chr>              <chr>      
 1 Bilbao   NAO         0.153     44372. 0.213    Spearman's rank c… two.sided  
 2 Bilbao   WeMO        0.404     31242  0.000706 Spearman's rank c… two.sided  
 3 Bilbao   EA         -0.256     65825. 0.0348   Spearman's rank c… two.sided  
 4 Bilbao   POL-EUAS    0.147     44670  0.230    Spearman's rank c… two.sided  
 5 Bilbao   EATL/WRUS   0.0155    51584. 0.900    Spearman's rank c… two.sided  
 6 Bilbao   MO         -0.0457    54788  0.711    Spearman's rank c… two.sided  
 7 Bilbao   SCAND       0.357     33688  0.00296  Spearman's rank c… two.sided  
 8 Bilbao   AO         -0.185     62070  0.131    Spearman's rank c… two.sided  
 9 Santiago NAO        -0.181     61902. 0.139    Spearman's rank c… two.sided  
10 Santiago WeMO        0.332     35014  0.00594  Spearman's rank c… two.sided  
# ℹ 30 more rows
…
