Visualize monthly precipitation anomalies | Dr. Dominic Royé
…
## Rows: 27606 Columns: 5
## -- Column specification --------------------------------------------------------
## Delimiter: ","
## dbl (5): STAID, SOUID, DATE, RR, Q_RR
## 
## i Use `spec()` to retrieve the full column specification for this data.
## i Specify the column types or set `show_col_types = FALSE` to quiet this message.

data

## # A tibble: 27,606 x 2
##    date          pr
##    <date>     <dbl>
##  1 1943-11-01   0.6
##  2 1943-11-02   0  
##  3 1943-11-03   0  
##  4 1943-11-04   0  
##  5 1943-11-05   0  
##  6 1943-11-06   0  
##  7 1943-11-07   0  
##  8 1943-11-08   0  
##  9 1943-11-09   0  
## 10 1943-11-10   0  
## # ... with 27,596 more rows
Step 2: creating monthly values

In the second step we calculate the monthly amounts of precipitation. To do this, a) we limit the period to the years after 1950, b) we add the month with its labels and the year as variables.

data <- mutate(data, mo = month(date, label = TRUE), yr = year(date)) %>%
            filter(date >= "1950-01-01") %>%
                group_by(yr, mo) %>% 
                   summarise(prs = sum(pr, na.rm = TRUE))

## `summarise()` has grouped output by 'yr'. You can override using the `.groups`
## argument.

data

## # A tibble: 833 x 3
## # Groups:   yr [70]
##       yr mo      prs
##    <dbl> <ord> <dbl>
##  1  1950 Jan    55.6
##  2  1950 Feb   349. 
##  3  1950 Mar    85.8
##  4  1950 Apr    33.4
##  5  1950 May   272. 
##  6  1950 Jun   111. 
##  7  1950 Jul    35.4
##  8  1950 Aug    76.4
##  9  1950 Sep    85  
## 10  1950 Oct    53  
## # ... with 823 more rows
…
