Una muy breve introducción a Tidyverse | Dominic Royé
…
## Warning: 597554 parsing failures.
##    row              col           expected         actual                         file
## 200119 sub_region_2     1/0/T/F/TRUE/FALSE Autauga County 'Global_Mobility_Report.csv'
## 200119 census_fips_code 1/0/T/F/TRUE/FALSE 01001          'Global_Mobility_Report.csv'
## 200120 sub_region_2     1/0/T/F/TRUE/FALSE Autauga County 'Global_Mobility_Report.csv'
## 200120 census_fips_code 1/0/T/F/TRUE/FALSE 01001          'Global_Mobility_Report.csv'
## 200121 sub_region_2     1/0/T/F/TRUE/FALSE Autauga County 'Global_Mobility_Report.csv'
## ...... ................ .................. .............. ............................
## See problems(...) for more details.

google_mobility

## # A tibble: 516,697 x 13
##    country_region_~ country_region sub_region_1 sub_region_2 iso_3166_2_code
##    <chr>            <chr>          <chr>        <lgl>        <chr>          
##  1 AE               United Arab E~ <NA>         NA           <NA>           
##  2 AE               United Arab E~ <NA>         NA           <NA>           
##  3 AE               United Arab E~ <NA>         NA           <NA>           
##  4 AE               United Arab E~ <NA>         NA           <NA>           
##  5 AE               United Arab E~ <NA>         NA           <NA>           
##  6 AE               United Arab E~ <NA>         NA           <NA>           
##  7 AE               United Arab E~ <NA>         NA           <NA>           
##  8 AE               United Arab E~ <NA>         NA           <NA>           
##  9 AE               United Arab E~ <NA>         NA           <NA>           
## 10 AE               United Arab E~ <NA>         NA           <NA>           
## # ... with 516,687 more rows, and 8 more variables: census_fips_code <lgl>,
## #   date <date>, retail_and_recreation_percent_change_from_baseline <dbl>,
## #   grocery_and_pharmacy_percent_change_from_baseline <dbl>,
## #   parks_percent_change_from_baseline <dbl>,
## #   transit_stations_percent_change_from_baseline <dbl>,
## #   workplaces_percent_change_from_baseline <dbl>,
## #   residential_percent_change_from_baseline <dbl>
…
residential_mobility <- select(google_mobility, 
                               country_region_code:sub_region_1, 
                               date, 
                               residential_percent_change_from_baseline) %>% 
                        rename(resi = 5)

4.4.2 Filtrar y ordenar

Para filtrar datos, empleamos filter() con operadores lógicos (|, ==, >, etc) o funciones que devuelven un valor lógico (str_detect(), is.na(), etc.). La función arrange() ordena de menor a mayor por una o múltiples variables (con el signo negativo - se invierte el orden de mayor a menor).

filter(residential_mobility, 
       country_region_code == "US")

## # A tibble: 304,648 x 5
##    country_region_code country_region sub_region_1 date        resi
##    <chr>               <chr>          <chr>        <date>     <dbl>
##  1 US                  United States  <NA>         2020-02-15    -1
##  2 US                  United States  <NA>         2020-02-16    -1
##  3 US                  United States  <NA>         2020-02-17     5
##  4 US                  United States  <NA>         2020-02-18     1
##  5 US                  United States  <NA>         2020-02-19     0
##  6 US                  United States  <NA>         2020-02-20     1
##  7 US                  United States  <NA>         2020-02-21     0
##  8 US                  United States  <NA>         2020-02-22    -1
##  9 US                  United States  <NA>         2020-02-23    -1
## 10 US                  United States  <NA>         2020-02-24     0
## # ... with 304,638 more rows

filter(residential_mobility, 
       country_region_code == "US", 
       sub_region_1 == "New York")

## # A tibble: 7,068 x 5
##    country_region_code country_region sub_region_1 date        resi
##    <chr>               <chr>          <chr>        <date>     <dbl>
##  1 US                  United States  New York     2020-02-15     0
##  2 US                  United States  New York     2020-02-16    -1
##  3 US                  United States  New York     2020-02-17     9
##  4 US                  United States  New York     2020-02-18     3
##  5 US                  United States  New York     2020-02-19     2
##  6 US                  United States  New York     2020-02-20     2
##  7 US                  United States  New York     2020-02-21     3
##  8 US                  United States  New York     2020-02-22    -1
##  9 US                  United States  New York     2020-02-23    -1
## 10 US                  United States  New York     2020-02-24     0
## # ... with 7,058 more rows

filter(residential_mobility, 
       resi > 50) %>% 
          arrange(-resi)

## # A tibble: 32 x 5
##    country_region_co~ country_region sub_region_1               date        resi
##    <chr>              <chr>          <chr>                      <date>     <dbl>
##  1 KW                 Kuwait         Al Farwaniyah Governorate  2020-05-14    56
##  2 KW                 Kuwait         Al Farwaniyah Governorate  2020-05-21    55
##  3 SG                 Singapore      <NA>                       2020-05-01    55
##  4 KW                 Kuwait         Al Farwaniyah Governorate  2020-05-28    54
##  5 PE                 Peru           Metropolitan Municipality~ 2020-04-10    54
##  6 EC                 Ecuador        Pichincha                  2020-03-27    53
##  7 KW                 Kuwait         Al Farwaniyah Governorate  2020-05-11    53
##  8 KW                 Kuwait         Al Farwaniyah Governorate  2020-05-13    53
##  9 KW                 Kuwait         Al Farwaniyah Governorate  2020-05-20    53
## 10 SG                 Singapore      <NA>                       2020-04-10    53
## # ... with 22 more rows
…
## Warning in min(resi, na.rm = TRUE): ningún argumento finito para min; retornando
## Inf

## Warning in min(resi, na.rm = TRUE): ningún argumento finito para min; retornando
## Inf

## Warning in min(resi, na.rm = TRUE): ningún argumento finito para min; retornando
## Inf

## `summarise()` ungrouping output (override with `.groups` argument)

arrange(resi_variability, -range)

## # A tibble: 94 x 4
##    country_region    mx   min range
##    <chr>          <dbl> <dbl> <dbl>
##  1 Nigeria           43     6    37
##  2 United States     35     6    29
##  3 India             36    15    21
##  4 Malaysia          45    26    19
##  5 Philippines       40    21    19
##  6 Vietnam           28     9    19
##  7 Colombia          41    24    17
##  8 Ecuador           44    27    17
##  9 Argentina         35    19    16
## 10 Chile             30    14    16
## # ... with 84 more rows
…
4.4.5 Tablas largas y anchas

Antes de pasar a la visualización con ggplot2. Es muy habitual modificar la tabla entre dos formatos principales. Una tabla es tidy cuando 1) cada variable es una columna 2) cada observación/caso es una fila y 3) cada tipo de unidad observacional forma una tabla.

# subconjunto 
mobility_selection <- select(subset_europe, country_region_code, date:resi)
mobility_selection

## # A tibble: 3,988 x 3
##    country_region_code date        resi
##    <chr>               <date>     <dbl>
##  1 AT                  2020-02-15    -2
##  2 AT                  2020-02-16    -2
##  3 AT                  2020-02-17     0
##  4 AT                  2020-02-18     0
##  5 AT                  2020-02-19     1
##  6 AT                  2020-02-20     0
##  7 AT                  2020-02-21     1
##  8 AT                  2020-02-22    -2
##  9 AT                  2020-02-23     0
## 10 AT                  2020-02-24    -1
## # ... with 3,978 more rows

# tabla ancha
mobi_wide <- pivot_wider(mobility_selection, 
                         names_from = country_region_code,
                         values_from = resi)
mobi_wide

## # A tibble: 114 x 36
##    date          AT    BA    BE    BG    BY    CH    CZ    DE    DK    EE    ES
##    <date>     <dbl> <dbl> <dbl> <dbl> <dbl> <dbl> <dbl> <dbl> <dbl> <dbl> <dbl>
##  1 2020-02-15    -2    -1    -1     0    -1    -1    -2    -1     0     0    -2
##  2 2020-02-16    -2    -1     1    -3     0    -1    -1     0     1     0    -2
##  3 2020-02-17     0    -1     0    -2     0     1     0     0     1     1    -1
##  4 2020-02-18     0    -1     0    -2     0     1     0     1     1     1     0
##  5 2020-02-19     1    -1     0    -1    -1     1     0     1     1     0    -1
##  6 2020-02-20     0    -1     0     0    -1     0     0     1     1     0    -1
##  7 2020-02-21     1    -2     0    -1    -1     1     0     2     1     1    -2
##  8 2020-02-22    -2    -1     0     0    -2    -2    -3     0     1     0    -2
##  9 2020-02-23     0    -1     0    -3    -1    -1     0     0     0    -2    -3
## 10 2020-02-24    -1    -1     4    -1     0     0     0     4     0    16     0
## # ... with 104 more rows, and 24 more variables: FI <dbl>, FR <dbl>, GB <dbl>,
## #   GR <dbl>, HR <dbl>, HU <dbl>, IE <dbl>, IT <dbl>, LT <dbl>, LU <dbl>,
## #   LV <dbl>, MD <dbl>, MK <dbl>, NL <dbl>, NO <dbl>, PL <dbl>, PT <dbl>,
## #   RO <dbl>, RS <dbl>, RU <dbl>, SE <dbl>, SI <dbl>, SK <dbl>, UA <dbl>

# tabla larga
pivot_longer(mobi_wide,
             2:36,
             names_to = "country_code",
             values_to = "resi")

## # A tibble: 3,990 x 3
##    date       country_code  resi
##    <date>     <chr>        <dbl>
##  1 2020-02-15 AT              -2
##  2 2020-02-15 BA              -1
##  3 2020-02-15 BE              -1
##  4 2020-02-15 BG               0
##  5 2020-02-15 BY              -1
##  6 2020-02-15 CH              -1
##  7 2020-02-15 CZ              -2
##  8 2020-02-15 DE              -1
##  9 2020-02-15 DK               0
## 10 2020-02-15 EE               0
## # ... with 3,980 more rows
…
Como ya hemos visto anteriormente, existen subfunciones de map_* para obtener en lugar de una lista un objeto de otra clase, aquí de data.frame.

cor_mobility <- europe_reg %>%
                  split(.$country_region_code) %>% 
                     map_df(cor_test, 
                            formula = "~ residential_percent_change_from_baseline + parks_percent_change_from_baseline", 
                            .id = "country_code")

arrange(cor_mobility, estimate)

## # A tibble: 27 x 9
##    country_code estimate statistic   p.value parameter conf.low conf.high method
##    <chr>           <dbl>     <dbl>     <dbl>     <int>    <dbl>     <dbl> <chr> 
##  1 IT             -0.831    -71.0  0.             2250   -0.844    -0.818 Pears~
##  2 ES             -0.825    -65.4  0.             2005   -0.839    -0.811 Pears~
##  3 PT             -0.729    -46.9  2.12e-321      1938   -0.749    -0.707 Pears~
##  4 FR             -0.698    -37.4  3.29e-216      1474   -0.723    -0.671 Pears~
##  5 GR             -0.692    -27.0  1.03e-114       796   -0.726    -0.654 Pears~
##  6 BG             -0.677    -37.8  1.47e-227      1694   -0.702    -0.650 Pears~
##  7 RO             -0.640    -56.0  0.             4517   -0.657    -0.623 Pears~
##  8 SI             -0.627    -11.4  1.98e- 23       200   -0.704    -0.535 Pears~
##  9 HR             -0.579    -21.9  9.32e- 87       954   -0.620    -0.536 Pears~
## 10 LV             -0.544     -6.87 3.84e- 10       112   -0.662    -0.401 Pears~
## # ... with 17 more rows, and 1 more variable: alternative <chr>
…
