A heatmap as calendar | Dr. Dominic Royé
…
For those with less experience with tidyverse, I recommend the short introduction on this blog post.

Data

In this example we will use the daily precipitation of Santiago de Compostela for this year 2020 (until December 20) download.

# import the data
dat_pr <- read_csv("precipitation_santiago.csv")
dat_pr

## # A tibble: 355 x 2
##    date          pr
##    <date>     <dbl>
##  1 2020-01-01   0  
##  2 2020-01-02   0  
##  3 2020-01-03   5.4
##  4 2020-01-04   0  
##  5 2020-01-05   0  
##  6 2020-01-06   0  
##  7 2020-01-07   0  
##  8 2020-01-08   1  
##  9 2020-01-09   3.8
## 10 2020-01-10   0  
## # ... with 345 more rows
…
In the next step we need to make a change in the week of the year, which is because in certain years there may be, for example, a few days at the end of the year as the first week of the following year. We also create two new columns. On the one hand, we categorize precipitation into 14 classes and on the other, we define a white text color for darker tones in the heatmap.

dat_pr <- mutate(dat_pr, 
                 week = case_when(month == "December" & week == 1 ~ 53,
                                  month == "January" & week %in% 52:53 ~ 0,
                                  TRUE ~ week),
                 pcat = cut(pr, c(-1, 0, .5, 1:5, 7, 9, 15, 20, 25, 30, 300)),
                 text_col = ifelse(pcat %in% c("(15,20]", "(20,25]", "(25,30]", "(30,300]"), 
                                   "white", "black")) 
      
dat_pr  

## # A tibble: 366 x 8
##    date          pr weekday month    week   day pcat    text_col
##    <date>     <dbl> <ord>   <ord>   <dbl> <int> <fct>   <chr>   
##  1 2020-01-01   0   Wed     January     1     1 (-1,0]  black   
##  2 2020-01-02   0   Thu     January     1     2 (-1,0]  black   
##  3 2020-01-03   5.4 Fri     January     1     3 (5,7]   black   
##  4 2020-01-04   0   Sat     January     1     4 (-1,0]  black   
##  5 2020-01-05   0   Sun     January     1     5 (-1,0]  black   
##  6 2020-01-06   0   Mon     January     2     6 (-1,0]  black   
##  7 2020-01-07   0   Tue     January     2     7 (-1,0]  black   
##  8 2020-01-08   1   Wed     January     2     8 (0.5,1] black   
##  9 2020-01-09   3.8 Thu     January     2     9 (3,4]   black   
## 10 2020-01-10   0   Fri     January     2    10 (-1,0]  black   
## # ... with 356 more rows
…
